{
  "kind": "collectionType",
  "collectionName": "employes",
  "info": {
    "name": "Employe",
    "description": ""
  },
  "options": {
    "increments": true,
    "timestamps": true,
    "draftAndPublish": true
  },
  "pluginOptions": {},
  "attributes": {
    "code": {
      "type": "string"
    },
    "nom": {
      "type": "string"
    },
    "prenom": {
      "type": "string"
    },
    "reunions": {
      "collection": "reunion",
      "via": "employes",
      "dominant": true
    },
    "direction": {
      "model": "direction",
      "via": "employes"
    },
    "utilisateur": {
      "model": "utilisateur"
    }
  }
}
